{
  "project_info": {
    "project_number": "725869507695",
    "firebase_url": "https://casettapp-1787d.firebaseio.com",
    "project_id": "casettapp-1787d",
    "storage_bucket": "casettapp-1787d.appspot.com"
  },
  "client": [
    {
      "client_info": {
        "mobilesdk_app_id": "1:725869507695:android:6dc6882e5310df49",
        "android_client_info": {
          "package_name": "com.casetta.casettapp"
        }
      },
      "oauth_client": [
        {
          "client_id": "725869507695-43984gi4558omv00b4t3k7lcn6jldt00.apps.googleusercontent.com",
          "client_type": 3
        }
      ],
      "api_key": [
        {
          "current_key": "AIzaSyBZ_Ip6IAwli-iPvU7gvzPJr7GbQbymubQ"
        }
      ],
      "services": {
        "appinvite_service": {
          "other_platform_oauth_client": [
            {
              "client_id": "725869507695-43984gi4558omv00b4t3k7lcn6jldt00.apps.googleusercontent.com",
              "client_type": 3
            }
          ]
        }
      }
    }
  ],
  "configuration_version": "1"
}